{
  "project_info": {
    "project_number": "268107316021",
    "firebase_url": "https://chatdemo-50033.firebaseio.com",
    "project_id": "chatdemo-50033",
    "storage_bucket": "chatdemo-50033.appspot.com"
  },
  "client": [
    {
      "client_info": {
        "mobilesdk_app_id": "1:268107316021:android:e14089d103c0f414",
        "android_client_info": {
          "package_name": "kosign.com.chatdemo"
        }
      },
      "oauth_client": [
        {
          "client_id": "268107316021-n07htq7htuqrkqc9a78iftrehbmttfak.apps.googleusercontent.com",
          "client_type": 1,
          "android_info": {
            "package_name": "kosign.com.chatdemo",
            "certificate_hash": "b6f92028c7687fd215976bb13fc2143934447cb5"
          }
        },
        {
          "client_id": "268107316021-mr3n4qhur2d8t7ef099pid1j1svd725n.apps.googleusercontent.com",
          "client_type": 3
        }
      ],
      "api_key": [
        {
          "current_key": "AIzaSyA7PElemb2cOC0uHVDFufFOnZmpIcSasMM"
        }
      ],
      "services": {
        "appinvite_service": {
          "other_platform_oauth_client": [
            {
              "client_id": "268107316021-mr3n4qhur2d8t7ef099pid1j1svd725n.apps.googleusercontent.com",
              "client_type": 3
            }
          ]
        }
      }
    }
  ],
  "configuration_version": "1"
}